…
*Example 6* Find the number of planes and number of flights that go to each possible destination

``` r
flights %>% group_by(dest) %>% 
            summarize(num_planes = n_distinct(tailnum),
                      num_flights = n_distinct(flight),
                      flights = n())
```

    ## # A tibble: 105 x 4
    ##    dest  num_planes num_flights flights
    ##    <chr>      <int>       <int>   <int>
    ##  1 ABQ          108           2     254
    ##  2 ACK           58           4     265
    ##  3 ALB          172          42     439
    ##  4 ANC            6           1       8
    ##  5 ATL         1180         300   17215
    ##  6 AUS          993         113    2439
    ##  7 AVL          159          10     275
    ##  8 BDL          186          34     443
    ##  9 BGR           46          16     375
    ## 10 BHM           45           4     297
    ## # ... with 95 more rows
…
