…
    ## [1] 46595

As we can see, there is significant amount of missing data. Since, the aim of this vignette is not modeling, we let it be for now.

To express what we wish to explore using `dplyr` we use a small selection of *verbs* They capture conditional execution of common data manipulations: - `filter()` to select rows - `arrange()` to re-order rows - `select()` to select features - `mutate()` to add functions of existing features - `summarize()` to summarize a feature vector using functions

We look at each of these verbs with an example

*Example 1*

``` r
flights %>% filter(month == 1, day == 1)
```

    ## # A tibble: 842 x 19
    ##     year month   day dep_time sched_dep_time dep_delay arr_time
    ##    <int> <int> <int>    <int>          <int>     <dbl>    <int>
    ##  1  2013     1     1      517            515      2.00      830
    ##  2  2013     1     1      533            529      4.00      850
    ##  3  2013     1     1      542            540      2.00      923
    ##  4  2013     1     1      544            545     -1.00     1004
    ##  5  2013     1     1      554            600     -6.00      812
    ##  6  2013     1     1      554            558     -4.00      740
    ##  7  2013     1     1      555            600     -5.00      913
    ##  8  2013     1     1      557            600     -3.00      709
    ##  9  2013     1     1      557            600     -3.00      838
    ## 10  2013     1     1      558            600     -2.00      753
    ## # ... with 832 more rows, and 12 more variables: sched_arr_time <int>,
    ## #   arr_delay <dbl>, carrier <chr>, flight <int>, tailnum <chr>,
    ## #   origin <chr>, dest <chr>, air_time <dbl>, distance <dbl>, hour <dbl>,
    ## #   minute <dbl>, time_hour <dttm>
