…
Now to the correct version

``` r
starwarsMean <- function(var) {
  starwars %>% 
    group_by_at(var) %>% # <------ Notice the scoped variant!
    summarize(MeanHeight = mean(height, na.rm = TRUE),
              MeanMass = mean(mass, na.rm = TRUE),
              Count = n())
}
  
starwarsMean("homeworld")  
```

    ## # A tibble: 49 x 4
    ##    homeworld      MeanHeight MeanMass Count
    ##    <chr>               <dbl>    <dbl> <int>
    ##  1 Alderaan            176       64.0     3
    ##  2 Aleen Minor          79.0     15.0     1
    ##  3 Bespin              175       79.0     1
    ##  4 Bestine IV          180      110       1
    ##  5 Cato Neimoidia      191       90.0     1
    ##  6 Cerea               198       82.0     1
    ##  7 Champala            196      NaN       1
    ##  8 Chandrila           150      NaN       1
    ##  9 Concord Dawn        183       79.0     1
    ## 10 Corellia            175       78.5     2
    ## # ... with 39 more rows
…
``` r
sum(is.na(hflights))
```

    ## [1] 25755

**Are flights at some destinations more delayed than others?**

``` r
hflights %>% group_by(Dest) %>% 
             summarize(AvgArrDelay = mean(ArrDelay, na.rm = TRUE),
                       AvgDepDelay = mean(DepDelay, na.rm = TRUE))
```

    ## # A tibble: 116 x 3
    ##    Dest  AvgArrDelay AvgDepDelay
    ##    <chr>       <dbl>       <dbl>
    ##  1 ABQ          7.23        8.48
    ##  2 AEX          5.84        6.38
    ##  3 AGS          4.00       10.0 
    ##  4 AMA          6.84        6.70
    ##  5 ANC         26.1        25.0 
    ##  6 ASE          6.79       16.0 
    ##  7 ATL          8.23       10.3 
    ##  8 AUS          7.45        8.42
    ##  9 AVL          9.97        8.90
    ## 10 BFL        -13.2         5.06
    ## # ... with 106 more rows
…
