…
**Filtering Joins**

There are two types of joins in this category - one, where we keep observations that match in the first dataframe and second, where we drop all observations that match in the first dataframe.

``` r
flights %>% anti_join(planes, by = "tailnum") %>% 
            count(tailnum, sort = TRUE)
```

    ## # A tibble: 722 x 2
    ##    tailnum     n
    ##    <chr>   <int>
    ##  1 <NA>     2512
    ##  2 N725MQ    575
    ##  3 N722MQ    513
    ##  4 N723MQ    507
    ##  5 N713MQ    483
    ##  6 N735MQ    396
    ##  7 N0EGMQ    371
    ##  8 N534MQ    364
    ##  9 N542MQ    363
    ## 10 N531MQ    349
    ## # ... with 712 more rows
